^D:\OSIPOV\BITBUCKET\GAP-235-01-DATA-STRUCTURES-ALGORITHMS\HOMEWORK\MODULE_10\DEMO 10.1\DEMO 10.1\DEMO 10.1\MAIN.CPP
/c /ZI /nologo /W3 /WX- /sdl /Od /Oy- /D WIN32 /D _DEBUG /D _CONSOLE /D _LIB /D _UNICODE /D UNICODE /Gm /EHsc /RTC1 /MDd /GS /fp:precise /Zc:wchar_t /Zc:forScope /Fo"DEBUG\\" /Fd"DEBUG\VC120.PDB" /Gd /TP /analyze- D:\OSIPOV\BITBUCKET\GAP-235-01-DATA-STRUCTURES-ALGORITHMS\HOMEWORK\MODULE_10\DEMO 10.1\DEMO 10.1\DEMO 10.1\MAIN.CPP
^D:\OSIPOV\GAP-235-01-DATA-STRUCTURES-ALGORITHMS\HOMEWORK\MODULE_10\DEMO 10.1\DEMO 10.1\DEMO 10.1\MAIN.CPP
/c /ZI /nologo /W3 /WX- /sdl /Od /Oy- /D WIN32 /D _DEBUG /D _CONSOLE /D _LIB /D _UNICODE /D UNICODE /Gm /EHsc /RTC1 /MDd /GS /fp:precise /Zc:wchar_t /Zc:forScope /Fo"DEBUG\\" /Fd"DEBUG\VC120.PDB" /Gd /TP /analyze- D:\OSIPOV\GAP-235-01-DATA-STRUCTURES-ALGORITHMS\HOMEWORK\MODULE_10\DEMO 10.1\DEMO 10.1\DEMO 10.1\MAIN.CPP
