^D:\WORK\SCHOOL\BITBUCKET\GAP-235-01-DATA-STRUCTURES-ALGORITHMS\HOMEWORK\MODULE_11\DEMO 11.1\DEMO 11.1\DEMO 10.1\MAIN.CPP
D:\WORK\SCHOOL\BITBUCKET\GAP-235-01-DATA-STRUCTURES-ALGORITHMS\HOMEWORK\MODULE_11\DEMO 11.1\DEMO 11.1\DEMO 10.1\DEBUG\VC120.PDB
D:\WORK\SCHOOL\BITBUCKET\GAP-235-01-DATA-STRUCTURES-ALGORITHMS\HOMEWORK\MODULE_11\DEMO 11.1\DEMO 11.1\DEMO 10.1\DEBUG\VC120.IDB
D:\WORK\SCHOOL\BITBUCKET\GAP-235-01-DATA-STRUCTURES-ALGORITHMS\HOMEWORK\MODULE_11\DEMO 11.1\DEMO 11.1\DEMO 10.1\DEBUG\MAIN.OBJ
