^D:\OSIPOV\DATASTRUCTURES\GAP-235-01-DATA-STRUCTURES-ALGORITHMS\HOMEWORK\MODULE_4\HOMEWORK\MERGESORTREDONE\MERGESORTREDONE\DEBUG\MERGESORTREDONE.OBJ
D:\OSIPOV\DATASTRUCTURES\GAP-235-01-DATA-STRUCTURES-ALGORITHMS\HOMEWORK\MODULE_4\HOMEWORK\MERGESORTREDONE\DEBUG\MERGESORTREDONE.ILK
D:\OSIPOV\DATASTRUCTURES\GAP-235-01-DATA-STRUCTURES-ALGORITHMS\HOMEWORK\MODULE_4\HOMEWORK\MERGESORTREDONE\DEBUG\MERGESORTREDONE.EXE
D:\OSIPOV\DATASTRUCTURES\GAP-235-01-DATA-STRUCTURES-ALGORITHMS\HOMEWORK\MODULE_4\HOMEWORK\MERGESORTREDONE\DEBUG\MERGESORTREDONE.PDB
