^D:\OSIPOV\DATASTRUCTURES\GAP-235-01-DATA-STRUCTURES-ALGORITHMS\HOMEWORK\MODULE_2\BINARYADDITION\BINARYADDITION\DEBUG\BINARYADDITION.OBJ
D:\OSIPOV\DATASTRUCTURES\GAP-235-01-DATA-STRUCTURES-ALGORITHMS\HOMEWORK\MODULE_2\BINARYADDITION\DEBUG\BINARYADDITION.ILK
D:\OSIPOV\DATASTRUCTURES\GAP-235-01-DATA-STRUCTURES-ALGORITHMS\HOMEWORK\MODULE_2\BINARYADDITION\DEBUG\BINARYADDITION.EXE
D:\OSIPOV\DATASTRUCTURES\GAP-235-01-DATA-STRUCTURES-ALGORITHMS\HOMEWORK\MODULE_2\BINARYADDITION\DEBUG\BINARYADDITION.PDB
