^D:\OSIPOV\DATASTRUCTURES\GAP-235-01-DATA-STRUCTURES-ALGORITHMS\HOMEWORK\MODULE_4\DEMO 4.2  MAXSUBARRAY\MAXSUBARRAY\MAXSUBARRAY\MAXSUBARRAY.CPP
D:\OSIPOV\DATASTRUCTURES\GAP-235-01-DATA-STRUCTURES-ALGORITHMS\HOMEWORK\MODULE_4\DEMO 4.2  MAXSUBARRAY\MAXSUBARRAY\MAXSUBARRAY\DEBUG\VC120.PDB
D:\OSIPOV\DATASTRUCTURES\GAP-235-01-DATA-STRUCTURES-ALGORITHMS\HOMEWORK\MODULE_4\DEMO 4.2  MAXSUBARRAY\MAXSUBARRAY\MAXSUBARRAY\DEBUG\VC120.IDB
D:\OSIPOV\DATASTRUCTURES\GAP-235-01-DATA-STRUCTURES-ALGORITHMS\HOMEWORK\MODULE_4\DEMO 4.2  MAXSUBARRAY\MAXSUBARRAY\MAXSUBARRAY\DEBUG\MAXSUBARRAY.OBJ
