^D:\OSIPOV\DATASTRUCTURES\GAP-235-01-DATA-STRUCTURES-ALGORITHMS\HOMEWORK\MODULE_4\DEMO 4.2  MAXSUBARRAY\MAXSUBARRAY\MAXSUBARRAY\DEBUG\MAXSUBARRAY.OBJ
D:\OSIPOV\DATASTRUCTURES\GAP-235-01-DATA-STRUCTURES-ALGORITHMS\HOMEWORK\MODULE_4\DEMO 4.2  MAXSUBARRAY\MAXSUBARRAY\DEBUG\MAXSUBARRAY.ILK
D:\OSIPOV\DATASTRUCTURES\GAP-235-01-DATA-STRUCTURES-ALGORITHMS\HOMEWORK\MODULE_4\DEMO 4.2  MAXSUBARRAY\MAXSUBARRAY\DEBUG\MAXSUBARRAY.EXE
D:\OSIPOV\DATASTRUCTURES\GAP-235-01-DATA-STRUCTURES-ALGORITHMS\HOMEWORK\MODULE_4\DEMO 4.2  MAXSUBARRAY\MAXSUBARRAY\DEBUG\MAXSUBARRAY.PDB
