^D:\OSIPOV\PROGRAMMING\GAP-235-01-DATA-STRUCTURES-ALGORITHMS\HOMEWORK\MODULE_3\SORTINGALGORITHM\SORTINGALGORITHM\SORTINGALGORITHM.CPP
D:\OSIPOV\PROGRAMMING\GAP-235-01-DATA-STRUCTURES-ALGORITHMS\HOMEWORK\MODULE_3\SORTINGALGORITHM\SORTINGALGORITHM\DEBUG\VC120.PDB
D:\OSIPOV\PROGRAMMING\GAP-235-01-DATA-STRUCTURES-ALGORITHMS\HOMEWORK\MODULE_3\SORTINGALGORITHM\SORTINGALGORITHM\DEBUG\VC120.IDB
D:\OSIPOV\PROGRAMMING\GAP-235-01-DATA-STRUCTURES-ALGORITHMS\HOMEWORK\MODULE_3\SORTINGALGORITHM\SORTINGALGORITHM\DEBUG\SORTINGALGORITHM.OBJ
