^D:\OSIPOV\DATASTRUCTURES\MODULE_2\INSERTIONSORT\INSERTIONSORT\DEBUG\INSERTIONSORT.OBJ
/OUT:"D:\OSIPOV\DATASTRUCTURES\MODULE_2\INSERTIONSORT\DEBUG\INSERTIONSORT.EXE" /INCREMENTAL /NOLOGO kernel32.lib user32.lib gdi32.lib winspool.lib comdlg32.lib advapi32.lib shell32.lib ole32.lib oleaut32.lib uuid.lib odbc32.lib odbccp32.lib /MANIFEST /MANIFESTUAC:"level='asInvoker' uiAccess='false'" /manifest:embed /DEBUG /PDB:"D:\OSIPOV\DATASTRUCTURES\MODULE_2\INSERTIONSORT\DEBUG\INSERTIONSORT.PDB" /SUBSYSTEM:CONSOLE /TLBID:1 /DYNAMICBASE /NXCOMPAT /IMPLIB:"D:\OSIPOV\DATASTRUCTURES\MODULE_2\INSERTIONSORT\DEBUG\INSERTIONSORT.LIB" /MACHINE:X86 DEBUG\INSERTIONSORT.OBJ
^D:\OSIPOV\DATASTRUCTURES\GAP-235-01-DATA-STRUCTURES-ALGORITHMS\HOMEWORK\MODULE_2\INSERTIONSORT\INSERTIONSORT\DEBUG\INSERTIONSORT.OBJ
/OUT:"D:\OSIPOV\DATASTRUCTURES\GAP-235-01-DATA-STRUCTURES-ALGORITHMS\HOMEWORK\MODULE_2\INSERTIONSORT\DEBUG\INSERTIONSORT.EXE" /INCREMENTAL /NOLOGO kernel32.lib user32.lib gdi32.lib winspool.lib comdlg32.lib advapi32.lib shell32.lib ole32.lib oleaut32.lib uuid.lib odbc32.lib odbccp32.lib /MANIFEST /MANIFESTUAC:"level='asInvoker' uiAccess='false'" /manifest:embed /DEBUG /PDB:"D:\OSIPOV\DATASTRUCTURES\GAP-235-01-DATA-STRUCTURES-ALGORITHMS\HOMEWORK\MODULE_2\INSERTIONSORT\DEBUG\INSERTIONSORT.PDB" /SUBSYSTEM:CONSOLE /TLBID:1 /DYNAMICBASE /NXCOMPAT /IMPLIB:"D:\OSIPOV\DATASTRUCTURES\GAP-235-01-DATA-STRUCTURES-ALGORITHMS\HOMEWORK\MODULE_2\INSERTIONSORT\DEBUG\INSERTIONSORT.LIB" /MACHINE:X86 DEBUG\INSERTIONSORT.OBJ
