﻿Build started 9/30/2015 7:38:45 PM.
     1>Project "D:\Osipov\DataStructures\gap-235-01-data-structures-algorithms\Homework\Module_4\Demo 4.2  MaxSubArray\MaxSubArray\MaxSubArray\MaxSubArray.vcxproj" on node 2 (Build target(s)).
     1>ClCompile:
         C:\Program Files (x86)\Microsoft Visual Studio 12.0\VC\bin\CL.exe /c /ZI /nologo /W3 /WX- /sdl /Od /Oy- /D WIN32 /D _DEBUG /D _CONSOLE /D _LIB /D _UNICODE /D UNICODE /Gm /EHsc /RTC1 /MDd /GS /fp:precise /Zc:wchar_t /Zc:forScope /Fo"Debug\\" /Fd"Debug\vc120.pdb" /Gd /TP /analyze- /errorReport:prompt MaxSubArray.cpp
         MaxSubArray.cpp
       Link:
         C:\Program Files (x86)\Microsoft Visual Studio 12.0\VC\bin\link.exe /ERRORREPORT:PROMPT /OUT:"D:\Osipov\DataStructures\gap-235-01-data-structures-algorithms\Homework\Module_4\Demo 4.2  MaxSubArray\MaxSubArray\Debug\MaxSubArray.exe" /INCREMENTAL /NOLOGO kernel32.lib user32.lib gdi32.lib winspool.lib comdlg32.lib advapi32.lib shell32.lib ole32.lib oleaut32.lib uuid.lib odbc32.lib odbccp32.lib /MANIFEST /MANIFESTUAC:"level='asInvoker' uiAccess='false'" /manifest:embed /DEBUG /PDB:"D:\Osipov\DataStructures\gap-235-01-data-structures-algorithms\Homework\Module_4\Demo 4.2  MaxSubArray\MaxSubArray\Debug\MaxSubArray.pdb" /SUBSYSTEM:CONSOLE /TLBID:1 /DYNAMICBASE /NXCOMPAT /IMPLIB:"D:\Osipov\DataStructures\gap-235-01-data-structures-algorithms\Homework\Module_4\Demo 4.2  MaxSubArray\MaxSubArray\Debug\MaxSubArray.lib" /MACHINE:X86 Debug\MaxSubArray.obj
         MaxSubArray.vcxproj -> D:\Osipov\DataStructures\gap-235-01-data-structures-algorithms\Homework\Module_4\Demo 4.2  MaxSubArray\MaxSubArray\Debug\MaxSubArray.exe
     1>Done Building Project "D:\Osipov\DataStructures\gap-235-01-data-structures-algorithms\Homework\Module_4\Demo 4.2  MaxSubArray\MaxSubArray\MaxSubArray\MaxSubArray.vcxproj" (Build target(s)).

Build succeeded.

Time Elapsed 00:00:01.03
