^D:\OSIPOV\INTRO_TO_ALGORITHMS\HOMEWORK\MODULE_4\HOMEWORK\MAXSUBARRAYBINARYSEARCH\MAXSUBARRAY\DEBUG\MAXSUBARRAY.OBJ
D:\OSIPOV\INTRO_TO_ALGORITHMS\HOMEWORK\MODULE_4\HOMEWORK\MAXSUBARRAYBINARYSEARCH\DEBUG\MAXSUBARRAY.ILK
D:\OSIPOV\INTRO_TO_ALGORITHMS\HOMEWORK\MODULE_4\HOMEWORK\MAXSUBARRAYBINARYSEARCH\DEBUG\MAXSUBARRAY.EXE
D:\OSIPOV\INTRO_TO_ALGORITHMS\HOMEWORK\MODULE_4\HOMEWORK\MAXSUBARRAYBINARYSEARCH\DEBUG\MAXSUBARRAY.PDB
