^D:\OSIPOV\GAP-235-01-DATA-STRUCTURES-ALGORITHMS\HOMEWORK\MODULE_5\COUNTINGSORT\COUNTINGSORT\COUNTINGSORT.CPP
D:\OSIPOV\GAP-235-01-DATA-STRUCTURES-ALGORITHMS\HOMEWORK\MODULE_5\COUNTINGSORT\COUNTINGSORT\DEBUG\VC120.PDB
D:\OSIPOV\GAP-235-01-DATA-STRUCTURES-ALGORITHMS\HOMEWORK\MODULE_5\COUNTINGSORT\COUNTINGSORT\DEBUG\VC120.IDB
D:\OSIPOV\GAP-235-01-DATA-STRUCTURES-ALGORITHMS\HOMEWORK\MODULE_5\COUNTINGSORT\COUNTINGSORT\DEBUG\COUNTINGSORT.OBJ
