^D:\OSIPOV\GAP-235-01-DATA-STRUCTURES-ALGORITHMS\HOMEWORK\MODULE_5\COUNTINGSORT\COUNTINGSORT\DEBUG\COUNTINGSORT.OBJ
D:\OSIPOV\GAP-235-01-DATA-STRUCTURES-ALGORITHMS\HOMEWORK\MODULE_5\COUNTINGSORT\DEBUG\COUNTINGSORT.ILK
D:\OSIPOV\GAP-235-01-DATA-STRUCTURES-ALGORITHMS\HOMEWORK\MODULE_5\COUNTINGSORT\DEBUG\COUNTINGSORT.EXE
D:\OSIPOV\GAP-235-01-DATA-STRUCTURES-ALGORITHMS\HOMEWORK\MODULE_5\COUNTINGSORT\DEBUG\COUNTINGSORT.PDB
